<?xml version="1.0" encoding="UTF-8" standalone="no"?>
<svg
   xmlns:dc="http://purl.org/dc/elements/1.1/"
   xmlns:cc="http://creativecommons.org/ns#"
   xmlns:rdf="http://www.w3.org/1999/02/22-rdf-syntax-ns#"
   xmlns:svg="http://www.w3.org/2000/svg"
   xmlns="http://www.w3.org/2000/svg"
   version="1.1"
   viewBox="0 0 128 128"
   height="128mm"
   width="128mm">
  <g transform="translate(-60.99665,-46.839035)">
    <path
       style="fill:#d45500;stroke:#d45500;stroke-width:0.586186"
       d="m 149.10727,168.70272 c 17.50191,2.93142 24.8035,-12.88619 27.36639,-22.30313 2.5617,-9.41636 10.4784,-6.4428 12.01294,-14.37325 1.5345,-7.9293 -6.16368,-16.23368 -9.46076,-21.31118 -5.02275,-7.73195 -7.17536,21.57375 -10.99646,32.58681 -3.71095,10.69684 -10.89464,18.86965 -29.15399,15.11592 -8.43774,-1.73405 -7.27004,7.35282 10.23188,10.28483 m -48.5858,-21.06361 c 7.52727,-3.71969 32.34091,10.65529 47.42881,7.43418 15.08671,-3.22169 23.14871,-30.97625 21.35757,-35.98622 -1.78939,-5.01113 -8.14242,15.29365 -21.31827,22.97654 -13.17586,7.68116 -22.60029,2.2257 -45.99255,-4.58007 -11.054816,-3.21477 -14.516853,16.59837 -1.47556,10.15557 M 63.725281,111.70712 c -2.047212,13.23761 3.809191,39.89634 25.290007,48.81759 21.479032,8.92125 25.059562,-5.45142 37.333292,4.46005 12.27493,9.91263 1.53511,-14.91684 -15.30763,-13.13316 -17.191079,1.8206 -22.409143,7.68173 -24.583185,-14.92723 -1.18736,-12.3472 -22.025668,-29.78693 -22.732484,-25.21725 m 43.189699,21.68279 c 9.97285,6.97774 25.65146,11.27506 37.00697,5.54896 8.52648,-4.30021 1.86083,-27.72742 -3.76512,-19.8518 -5.62536,7.87505 -19.1454,14.95664 -35.9274,6.49647 -4.833396,-2.43632 -5.329418,2.19857 2.68555,7.80637 m 19.4336,-33.08194 c 6.28037,-1.070996 6.26489,7.31073 8.62651,8.17746 2.36042,0.86731 1.98587,-5.32737 0,-7.93046 -1.98588,-2.600789 -7.07889,-4.138649 -9.52149,-2.10625 -2.67006,2.2228 -5.38479,2.93027 0.89498,1.85925 m 5.29012,-3.469824 c 5.45446,-0.330071 8.51813,6.443404 5.57415,12.886214 -2.94279,6.44339 -6.94372,0 -6.26132,-1.98217 0.68181,-1.98276 -3.06843,-5.12194 -6.64777,-4.29502 -3.57876,0.82578 -1.36481,4.62568 0,8.25995 1.3648,3.6337 13.80824,5.61705 17.56622,-1.98276 3.75858,-7.59922 -5.27761,-15.05534 -8.7444,-15.612212 -3.16193,-0.506644 -6.94253,3.057247 -1.48688,2.725998 m -2.34971,-8.610789 c -8.69915,0.683806 -17.89969,6.464738 -17.13273,14.246893 0.76696,7.7816 -3.83956,21.0948 2.34435,21.45084 6.1851,0.35718 19.00784,-0.68036 17.98484,-4.83802 -1.02242,-4.15826 -11.50677,3.27534 -12.78583,-7.87562 -1.27847,-11.15161 2.30206,-20.012254 10.73982,-18.524622 8.43893,1.485908 8.31149,-5.202709 -1.15045,-4.459471 M 93.052543,73.097021 C 93.921326,70.61741 92.468392,69.210562 89.98411,70.241167 76.819563,75.699531 60.217393,85.914526 61.344608,93.121346 c 1.278466,8.177434 20.20176,24.726204 28.896147,37.666644 8.693201,12.94042 9.460159,-6.93849 -0.256645,-15.36407 -9.716207,-8.42556 -13.979144,-25.523678 -5.624766,-31.223238 3.961036,-2.702923 7.671977,-8.188397 8.693199,-11.103661 m 9.770987,3.586966 C 88.151268,84.28031 78.785788,96.012968 88.161986,106.91586 c 9.376196,10.90342 17.900284,19.4946 20.116604,16.35542 2.21573,-3.1386 -19.774806,-22.63265 -6.99017,-38.988091 10.04669,-12.850983 7.27182,-10.569886 1.53511,-7.599202 m 42.95925,12.720559 c -4.16527,-11.437199 -21.23905,-22.568559 -33.58304,-11.895382 -11.5824,10.014758 -14.105392,25.214946 -5.73256,34.569576 1.09507,1.22336 2.39615,1.04044 2.1282,-0.55742 -1.61669,-9.66451 -1.01765,-20.787809 12.8954,-25.007807 16.06505,-4.873226 24.01988,6.60092 24.292,7.020433 1.182,1.824071 1.02242,-1.321462 0,-4.1294 m 2.2068,21.063644 c -7.41652,-18.833319 22.8242,-16.128106 -6.58347,-35.456521 -29.40646,-19.328982 -38.64212,-2.491716 -42.929472,-0.723609 -1.474374,0.608213 -1.979327,-1.052546 -1.214749,-2.18243 5.582481,-8.253019 3.516821,-29.481666 30.621211,-14.420554 28.89495,16.057082 34.65251,13.228359 48.29106,21.818386 13.63793,8.591182 -6.1994,28.123308 -13.64213,39.513768 -9.58938,14.67565 -6.47865,11.93117 -14.54245,-8.54904">
  </g>
</svg>
